Chapter 15 Group structured populations and migration | Individual-based models of cultural evolution
…
library(tidyverse)
r_max <- 1000
rec_behav <- tibble(time = 1:r_max, b1 = 0, b2 = 0)

for(round in 1:r_max){
  # Unbiased copying of a behaviour by a random individual
  behaviours[ sample(x = n, size = 1) ] <- sample(x = behaviours, size = 1)
  # Record the frequency of each trait in each round
  rec_behav[round, "b1"] <- sum(behaviours==1)
  rec_behav[round, "b2"] <- sum(behaviours==2)
}
rec_behav

## # A tibble: 1,000 x 3
##     time    b1    b2
##    <int> <dbl> <dbl>
##  1     1    50    50
##  2     2    49    51
##  3     3    50    50
##  4     4    50    50
##  5     5    50    50
##  6     6    50    50
##  7     7    50    50
##  8     8    50    50
##  9     9    50    50
## 10    10    50    50
## # … with 990 more rows

To plot the results with ggplot(), we need to turn the ‘wide’ data (where repeated measures/different categories are in the same line) into ‘long’ data (where each line has only one observation/category). To ‘rotate’ our data we can use the pivot_longer() function. In its arguments we tell it to combine the results of columns b1 and b2 into beaviour, which indicates the name of the behaviour, and freq, which is the frequency of that behaviour. The function will repeat the entries of the time column accordingly:

rec_behav_l <- pivot_longer(data = rec_behav, names_to = "behaviour", 
                            values_to = "freq", cols=c("b1","b2"))
rec_behav

## # A tibble: 1,000 x 3
##     time    b1    b2
##    <int> <dbl> <dbl>
##  1     1    50    50
##  2     2    49    51
##  3     3    50    50
##  4     4    50    50
##  5     5    50    50
##  6     6    50    50
##  7     7    50    50
##  8     8    50    50
##  9     9    50    50
## 10    10    50    50
## # … with 990 more rows

rec_behav_l

## # A tibble: 2,000 x 3
##     time behaviour  freq
##    <int> <chr>     <dbl>
##  1     1 b1           50
##  2     1 b2           50
##  3     2 b1           49
##  4     2 b2           51
##  5     3 b1           50
##  6     3 b2           50
##  7     4 b1           50
##  8     4 b2           50
##  9     5 b1           50
## 10     5 b2           50
## # … with 1,990 more rows
…
res <- bind_rows(lapply(1:nrow(grid), function(i) 
  structured_population_6(c = 5, 
                          n = 20, 
                          r_max = 2000, 
                          p_m = grid[i, "pm"], 
                          p_c = grid[i, "pc"], 
                          sim = i)
  ))
res

## # A tibble: 640,000 x 5
##     time     var   sim   p_c   p_m
##    <int>   <dbl> <int> <dbl> <dbl>
##  1     1 0.00675     1     0     0
##  2     2 0.00575     1     0     0
##  3     3 0.00575     1     0     0
##  4     4 0.00675     1     0     0
##  5     5 0.00700     1     0     0
##  6     6 0.00575     1     0     0
##  7     7 0.00425     1     0     0
##  8     8 0.0075      1     0     0
##  9     9 0.0075      1     0     0
## 10    10 0.008       1     0     0
## # … with 639,990 more rows
…
