Chapter 1 Unbiased transmission | Individual-based models of cultural evolution
…
N <- 100
t_max <- 200

Now we need to create our individuals. The only information we need to keep about our individuals is their cultural trait (\(A\) or \(B\)). We’ll call population the data structure containing the individuals. The type of data structure we have chosen here is a tibble. This is a more user-friendly version of a dataframe. Tibbles, and the tibble command, are part of the tidyverse library, which we need to call before creating the tibble. We will use other commands from the tidyverse throughout the book.

Initially, we’ll give each individual either an \(A\) or \(B\) at random, using the sample() command. This can be seen in the code chunk below. The sample() command takes three arguments (i.e. inputs or options). The first argument lists the elements to pick at random, in our case, the traits \(A\) and \(B\). The second argument gives the number of times to pick, in our case \(N\) times, once for each individual. The final argument says to replace or reuse the elements specified in the first argument after they’ve been picked (otherwise there would only be one copy of \(A\) and one copy of \(B\), so we could only give two individuals traits before running out). Within the tibble command, the word trait denotes the name of the variable within the tibble that contains the random \(A\)s and \(B\)s, and the whole tibble is assigned the name population.

library(tidyverse)
population <- tibble(trait = sample(c("A", "B"), N, replace = TRUE))

We can see the cultural traits of our population by simply entering its name in the R console:

population

## # A tibble: 100 x 1
##    trait
##    <chr>
##  1 A    
##  2 A    
##  3 B    
##  4 B    
##  5 A    
##  6 B    
##  7 A    
##  8 B    
##  9 B    
## 10 A    
## # … with 90 more rows
…
This should match the fourth row in the table above.

We also need a tibble to record the output of our simulation, that is, to track the trait frequency \(p\) in each generation. This will have two columns with \(t_{\text{max}}\) rows, one row for each generation. The first column is simply a counter of the generations, from 1 to \(t_{\text{max}}\). This will be useful for plotting the output later. The other column should contain the values of \(p\) for each generation.

At this stage we don’t know what \(p\) will be in each generation, so for now let’s fill the output tibble with lots of NAs, which is R’s symbol for Not Available, or missing value. We can use the rep() (repeat) command to repeat NA \(t_{\text{max}}\) times. We’re using NA rather than, say, zero, because zero could be misinterpreted as \(p=0\), which would mean that all individuals have trait \(B\). This would be misleading, because at the moment we haven’t yet calculated \(p\), so it’s nonexistent, rather than zero.

output <- tibble(generation = 1:t_max, p = rep(NA, t_max))

We can, however, fill in the first value of p for our already-created first generation of individuals, held in population. The command below sums the number of \(A\)s in population and divides by \(N\) to get a proportion out of 1 rather than an absolute number. It then puts this proportion in the first slot of p in output, the one for the first generation, \(t=1\). We can again write the name of the tibble, output, to see that it worked.

output$p[1] <- sum(population$trait == "A") / N
output

## # A tibble: 200 x 2
##    generation     p
##         <int> <dbl>
##  1          1  0.54
##  2          2 NA   
##  3          3 NA   
##  4          4 NA   
##  5          5 NA   
##  6          6 NA   
##  7          7 NA   
##  8          8 NA   
##  9          9 NA   
## 10         10 NA   
## # … with 190 more rows
…
Figure 1.4: Unbiased cultural transmission generates different dynamics in multiple runs

You should be able to see five independent runs of our simulation shown as regular thin lines, along with a thicker line showing the mean of these lines. Some runs have probably gone to 0 or 1, and the mean should be somewhere in between. The data is stored in data_model, which we can inspect by writing its name.

data_model

## # A tibble: 1,000 x 3
##    generation     p run  
##         <int> <dbl> <fct>
##  1          1 0.5   1    
##  2          2 0.46  1    
##  3          3 0.52  1    
##  4          4 0.570 1    
##  5          5 0.570 1    
##  6          6 0.56  1    
##  7          7 0.61  1    
##  8          8 0.53  1    
##  9          9 0.53  1    
## 10         10 0.52  1    
## # … with 990 more rows
…
